{
    "id": 1,
    "vendor": "Yamaha",
    "name": "XT1200ZE Super Tenere ES",
    "images": [
        "3507.jpg"
    ],
    "characteristics": {
        "Ходовая часть / тормоза": {
            "Рама": {
                "Тип рамы": "Трубчатая стальная"
            },
            "Подвеска": {
                "Тип передней подвески": "43 мм перевернутая вилка, настраиваемая",
                "Ход передней подвески, мм": "190",
                "Тип задней подвески": "Маятниковая с моноамортизатором, настраиваемая",
                "Ход задней подвески, мм": "190"
            }
        }
    }
}