{
    "id": 4,
    "vendor": "BMW",
    "name": "R 1200 GS Adventure",
    "characteristics": {
        "Ходовая часть / тормоза": {
            "Рама": {
                "Тип рамы": "Двухсекционная рама (основная рама и крепящаяся к ней болтами задняя секция), несущий двигатель"
            },
            "Подвеска": {
                "Тип передней подвески": "Подвеска BMW Motorrad Telelever; диаметр пера 37 мм, центральная амортизаторная стойка",
                "Ход передней подвески, мм": 210,
                "Тип задней подвески": "Односторонний маятник из алюминиевого сплава с BMW Motorrad Paralever; WAD стойка с прогрессивным характером демпфирования, гидравлическая (бесступенчатая) регулировка сжатия пружины и регулировка характеристик отбоя с помощью поворотных рукояток",
                "Ход задней подвески, мм": 220
            }
        }
    }
}